Transition_From*, Transition_To*, First_Variable*, Second_Variable*, Chi_2, Cramer, Contingency, Joint_Entropy, Joint_Uncertainty, 
1, 4, distance/distance_to_1, distance/distance_to_2, 144379.067430434, 0.0930997263595793, 0.183053240796211, 2.22210884158148, 0.0159472992387591, 
1, 4, distance/distance_to_1, distance/distance_to_3, 346409.350901598, 0.144208577106858, 0.27712128110978, 2.19483716500917, 0.0347747808644773, 
1, 4, distance/distance_to_1, distance/distance_to_4, 130030.107784362, 0.08835237934309, 0.174008963022612, 2.07510405745434, 0.0180112400808149, 
1, 4, distance/distance_to_1, distance/distance_to_5, 163754.202173931, 0.0991499535465438, 0.194512390972823, 1.5415815093476, 0.0316364958524444, 
1, 4, distance/distance_to_1, distance/distance_to_6, 319723.830988878, 0.138542746333514, 0.26702445039823, 2.76708463834701, 0.0272169563836033, 
1, 4, distance/distance_to_1, distance/distance_to_7, 813890.212321667, 0.221044239362244, 0.40433831914258, 3.24358388322875, 0.0575014794522004, 
1, 4, distance/distance_to_2, distance/distance_to_3, 870174.631454578, 0.118027678079552, 0.415741987327657, 3.22656554573218, 0.0522597003284497, 
1, 4, distance/distance_to_2, distance/distance_to_4, 8841338.00080748, 0.420624589648988, 0.824503109461903, 2.79992587973723, 0.235391173446226, 
1, 4, distance/distance_to_2, distance/distance_to_5, 1363867.92862944, 0.202333339245027, 0.496699247945761, 2.55516143308689, 0.0685303432020701, 
1, 4, distance/distance_to_2, distance/distance_to_6, 2197407.6482611, 0.187558162953691, 0.587714881123163, 3.74208050184916, 0.0734373410684059, 
1, 4, distance/distance_to_2, distance/distance_to_7, 874659.886082865, 0.118331469843995, 0.416626522014487, 4.34150687844152, 0.0351003679393408, 
1, 4, distance/distance_to_3, distance/distance_to_4, 720278.648032146, 0.120056569968496, 0.384002812594652, 3.09960541490105, 0.0426403929929454, 
1, 4, distance/distance_to_3, distance/distance_to_5, 4753922.186188, 0.377752480584646, 0.730105507013435, 2.35329590828585, 0.216880128404236, 
1, 4, distance/distance_to_3, distance/distance_to_6, 693195.798159453, 0.0936003438812905, 0.377763000620634, 3.80168801827404, 0.0395725785290537, 
1, 4, distance/distance_to_3, distance/distance_to_7, 319824.134324987, 0.0505965929114967, 0.267063345467057, 4.37003383920214, 0.0193682366637731, 
1, 4, distance/distance_to_4, distance/distance_to_5, 1901568.79480613, 0.238911641080423, 0.559896371935722, 2.37112895674503, 0.102954819121753, 
1, 4, distance/distance_to_4, distance/distance_to_6, 3073178.08655083, 0.24798734836112, 0.651626402737677, 3.54373712875432, 0.104301695616267, 
1, 4, distance/distance_to_4, distance/distance_to_7, 1157409.88638011, 0.152187595295955, 0.466354180718551, 4.16110880018094, 0.052395937236984, 
1, 4, distance/distance_to_5, distance/distance_to_6, 1346881.18337075, 0.201069377481079, 0.494356500775247, 3.08130297316698, 0.0808494870184512, 
1, 4, distance/distance_to_5, distance/distance_to_7, 908001.85438291, 0.16509147899941, 0.423095685133366, 3.62860069027014, 0.0623959676980244, 
1, 4, distance/distance_to_6, distance/distance_to_7, 4564902.23528157, 0.24019569756332, 0.723147966470016, 4.66566296246293, 0.127876046832277, 
1, 5, distance/distance_to_1, distance/distance_to_2, 144380.31850195, 0.0931001297219415, 0.183054007314177, 2.22516654876559, 0.0159291991974925, 
1, 5, distance/distance_to_1, distance/distance_to_3, 345787.776592629, 0.144079139792384, 0.276891623545378, 2.19300232921696, 0.0347633680469177, 
1, 5, distance/distance_to_1, distance/distance_to_4, 130030.192718435, 0.0883524081984313, 0.174009018132094, 2.07981617354319, 0.0179720816541853, 
1, 5, distance/distance_to_1, distance/distance_to_5, 163754.202173931, 0.0991499535465438, 0.194512390972823, 1.5415815093476, 0.0316364958524444, 
1, 5, distance/distance_to_1, distance/distance_to_6, 319723.830988878, 0.138542746333514, 0.26702445039823, 2.76708463834701, 0.0272169563836033, 
1, 5, distance/distance_to_1, distance/distance_to_7, 813823.404894045, 0.221035167069782, 0.404324436935375, 3.23856133866814, 0.0575705674404362, 
1, 5, distance/distance_to_2, distance/distance_to_3, 870842.5575315, 0.114323658764225, 0.415873927832222, 3.2277394557142, 0.0522456844676572, 
1, 5, distance/distance_to_2, distance/distance_to_4, 10142385.4860947, 0.417092444342666, 0.84197607736491, 2.8060830578268, 0.235833144537124, 
1, 5, distance/distance_to_2, distance/distance_to_5, 1368377.73426518, 0.202667583839912, 0.497316961345333, 2.55819332505251, 0.0684737274750462, 
1, 5, distance/distance_to_2, distance/distance_to_6, 2221759.33224021, 0.182605897358463, 0.589834625605958, 3.74489704222967, 0.0735056860133841, 
1, 5, distance/distance_to_2, distance/distance_to_7, 876178.94817017, 0.114673402777676, 0.416925313815481, 4.33958129621972, 0.0350866575537006, 
1, 5, distance/distance_to_3, distance/distance_to_4, 722550.636624614, 0.111325950079097, 0.384518554256551, 3.10239898251554, 0.0426272931723314, 
1, 5, distance/distance_to_3, distance/distance_to_5, 4753905.46935445, 0.377751816414026, 0.730104907601782, 2.35142747661914, 0.217025760852512, 
1, 5, distance/distance_to_3, distance/distance_to_6, 692374.770365604, 0.0935448968830891, 0.377571131348987, 3.79988598094154, 0.039551413598451, 
1, 5, distance/distance_to_3, distance/distance_to_7, 318363.191588859, 0.0532115398521224, 0.266496096118, 4.36315613747092, 0.0193736630117046, 
1, 5, distance/distance_to_4, distance/distance_to_5, 1894529.33428647, 0.23846901485541, 0.55918362313491, 2.37578614109417, 0.102806009891815, 
1, 5, distance/distance_to_4, distance/distance_to_6, 3142039.3459862, 0.232149672724808, 0.655774227415334, 3.54797365877391, 0.104425182322599, 
1, 5, distance/distance_to_4, distance/distance_to_7, 1165769.57212465, 0.141406256099026, 0.467668157125682, 4.16060779322302, 0.0524758596256501, 
1, 5, distance/distance_to_5, distance/distance_to_6, 1346881.18337075, 0.201069377481079, 0.494356500775247, 3.08130297316698, 0.0808494870184512, 
1, 5, distance/distance_to_5, distance/distance_to_7, 907161.010876548, 0.165015020868015, 0.422934794963606, 3.62357899463581, 0.0624637169773149, 
1, 5, distance/distance_to_6, distance/distance_to_7, 4539353.97544245, 0.239522606224545, 0.722179105936706, 4.66108452697082, 0.127815342547166, 
2, 1, distance/distance_to_1, distance/distance_to_2, 99922.4147733591, 0.0774511282784148, 0.153076628410466, 1.67881981125558, 0.0137582659331594, 
2, 1, distance/distance_to_1, distance/distance_to_3, 337107.777416957, 0.142259302322116, 0.27365771678779, 1.91808058443364, 0.0388170415188291, 
2, 1, distance/distance_to_1, distance/distance_to_4, 128568.793589879, 0.0878545124025378, 0.173057867000296, 1.9273069129925, 0.0183984867706256, 
2, 1, distance/distance_to_1, distance/distance_to_5, 163726.191589497, 0.0991414732544883, 0.194496383705502, 1.50856030696153, 0.0322112072906105, 
2, 1, distance/distance_to_1, distance/distance_to_6, 318123.880430287, 0.138195666249718, 0.266403026856567, 2.26747404761884, 0.0327196705446603, 
2, 1, distance/distance_to_1, distance/distance_to_7, 810494.243805036, 0.220582602191592, 0.40363157824931, 2.51108131180799, 0.0728063960571481, 
2, 1, distance/distance_to_2, distance/distance_to_3, 570398.616401053, 0.185048479112588, 0.347088861663205, 2.41963698368482, 0.0533783978171494, 
2, 1, distance/distance_to_2, distance/distance_to_4, 3503939.67172261, 0.458642819340793, 0.675972453509766, 2.22400050354202, 0.202931514496873, 
2, 1, distance/distance_to_2, distance/distance_to_5, 543345.985897941, 0.18060697548508, 0.339730027788593, 1.9994706728083, 0.0617731622536755, 
2, 1, distance/distance_to_2, distance/distance_to_6, 764584.6666172, 0.214244203390673, 0.393854827668572, 2.75471306267675, 0.0567275270338024, 
2, 1, distance/distance_to_2, distance/distance_to_7, 346963.520265559, 0.144323880056001, 0.277325820414034, 3.09778301600407, 0.02430221695496, 
2, 1, distance/distance_to_3, distance/distance_to_4, 486467.103057603, 0.139533149533878, 0.323416382102824, 2.68824808901932, 0.0383039294347803, 
2, 1, distance/distance_to_3, distance/distance_to_5, 2278652.59668994, 0.301988022104793, 0.594695754706498, 2.10021144982942, 0.19630796203457, 
2, 1, distance/distance_to_3, distance/distance_to_6, 573316.343464995, 0.12368077287224, 0.347868283030172, 3.03471534156196, 0.0425761895030396, 
2, 1, distance/distance_to_3, distance/distance_to_7, 249442.239935689, 0.0815811885359359, 0.237727244828681, 3.36753910162822, 0.0199585314032347, 
2, 1, distance/distance_to_4, distance/distance_to_5, 1475105.89895547, 0.242975373670568, 0.511437914474675, 2.19513910924963, 0.105963780012355, 
2, 1, distance/distance_to_4, distance/distance_to_6, 1851200.98477007, 0.27219330892172, 0.55473939446453, 2.92535071619419, 0.106495963160215, 
2, 1, distance/distance_to_4, distance/distance_to_7, 773618.897464212, 0.175960097420697, 0.395812287231898, 3.29848711111123, 0.0543573309303042, 
2, 1, distance/distance_to_5, distance/distance_to_6, 1148420.51354462, 0.214388324188674, 0.4649324518015, 2.55505337374925, 0.091772438020817, 
2, 1, distance/distance_to_5, distance/distance_to_7, 829689.572941055, 0.182225216507396, 0.407597713821141, 2.86684420023347, 0.0750993667319479, 
2, 1, distance/distance_to_6, distance/distance_to_7, 2637835.11956, 0.265294870121054, 0.622729637734785, 3.49653283577131, 0.135493443865303, 
2, 4, distance/distance_to_1, distance/distance_to_2, 103611.303936405, 0.0788678238879879, 0.155809247930515, 1.76153725820539, 0.0137704640054463, 
2, 4, distance/distance_to_1, distance/distance_to_3, 351267.960319566, 0.109773252817036, 0.278907746965079, 2.04310665704521, 0.0374303679319146, 
2, 4, distance/distance_to_1, distance/distance_to_4, 129910.772334876, 0.0789884995619567, 0.173931512803376, 1.94240182722831, 0.0185392895065032, 
2, 4, distance/distance_to_1, distance/distance_to_5, 162844.8612753, 0.0988742762708973, 0.193991947314051, 1.43809018193628, 0.0329954082883066, 
2, 4, distance/distance_to_1, distance/distance_to_6, 322902.457896933, 0.105247778890588, 0.268253456453866, 2.54820403207961, 0.0298340469717928, 
2, 4, distance/distance_to_1, distance/distance_to_7, 814392.653415852, 0.167145307146904, 0.404442696370872, 2.38999785871191, 0.0763902030771463, 
2, 4, distance/distance_to_2, distance/distance_to_3, 576227.857595786, 0.185991635556992, 0.348643354650196, 2.49098487663318, 0.0520225816423991, 
2, 4, distance/distance_to_2, distance/distance_to_4, 2535473.53806077, 0.390144805979185, 0.615173748204681, 2.18263474030555, 0.208026000216632, 
2, 4, distance/distance_to_2, distance/distance_to_5, 526828.159938702, 0.177840544228072, 0.335114665735876, 1.87824105205604, 0.0613199126419284, 
2, 4, distance/distance_to_2, distance/distance_to_6, 1094034.7807439, 0.256278310836652, 0.456130697078595, 2.97297970786273, 0.0582892736641634, 
2, 4, distance/distance_to_2, distance/distance_to_7, 425617.291000529, 0.159847526350128, 0.304512231340603, 2.91933407504697, 0.0277069672307216, 
2, 4, distance/distance_to_3, distance/distance_to_4, 507461.403840721, 0.15611433740548, 0.329578417494705, 2.69094954008599, 0.0389057321624269, 
2, 4, distance/distance_to_3, distance/distance_to_5, 2180085.96613457, 0.361770456558659, 0.58619246538982, 2.02356682586499, 0.198048354000998, 
2, 4, distance/distance_to_3, distance/distance_to_6, 607028.556403874, 0.0954488837291063, 0.356683100222625, 3.30189480965435, 0.0407384496581721, 
2, 4, distance/distance_to_3, distance/distance_to_7, 226031.820547821, 0.0672543612768007, 0.22689950419475, 3.23856793959391, 0.0184174869984989, 
2, 4, distance/distance_to_4, distance/distance_to_5, 1063915.0622663, 0.252725908866226, 0.451101838382561, 2.0213438845006, 0.0970885873158153, 
2, 4, distance/distance_to_4, distance/distance_to_6, 2194664.80124206, 0.324657455845724, 0.587474625321776, 3.07631046384746, 0.106334046486808, 
2, 4, distance/distance_to_4, distance/distance_to_7, 868424.755957741, 0.20422428275895, 0.415395956203586, 3.05394983168236, 0.059241184427768, 
2, 4, distance/distance_to_5, distance/distance_to_6, 1000048.68769411, 0.24502300425023, 0.440048562877071, 2.63930456429715, 0.0809876980633109, 
2, 4, distance/distance_to_5, distance/distance_to_7, 765368.63686441, 0.214354013366976, 0.394025361788987, 2.54485544643233, 0.078490480528929, 
2, 4, distance/distance_to_6, distance/distance_to_7, 3311246.65526404, 0.257413563800855, 0.665537878028421, 3.51284337004508, 0.138095113807691, 
2, 5, distance/distance_to_1, distance/distance_to_2, 100956.088408683, 0.110097521883573, 0.153847716478665, 1.68398768736553, 0.0139234629263405, 
2, 5, distance/distance_to_1, distance/distance_to_3, 338907.341987009, 0.201721307681486, 0.274332340892283, 1.98207777096366, 0.0378624395077428, 
2, 5, distance/distance_to_1, distance/distance_to_4, 117664.886696229, 0.118859726514549, 0.165767448423576, 1.67164593944545, 0.0189012442291693, 
2, 5, distance/distance_to_1, distance/distance_to_5, 162317.752727864, 0.139602853955939, 0.193689526246463, 1.36860282002539, 0.0343329296853159, 
2, 5, distance/distance_to_1, distance/distance_to_6, 316677.938055019, 0.194993525050987, 0.265839787746585, 2.25051042435914, 0.032536506459995, 
2, 5, distance/distance_to_1, distance/distance_to_7, 790634.147062096, 0.308105229609121, 0.399453804050942, 2.53043143637451, 0.0709705078919271, 
2, 5, distance/distance_to_2, distance/distance_to_3, 568891.635721884, 0.184803870424129, 0.346685233866246, 2.49100807988677, 0.0517816618142069, 
2, 5, distance/distance_to_2, distance/distance_to_4, 2423969.79113925, 0.38146956129918, 0.60656339795604, 1.97959994555194, 0.22017340941776, 
2, 5, distance/distance_to_2, distance/distance_to_5, 504918.222034964, 0.174103222849772, 0.328841043725695, 1.87045653023932, 0.0610991052107514, 
2, 5, distance/distance_to_2, distance/distance_to_6, 763023.539264233, 0.214025369949816, 0.393514859564602, 2.74364990215913, 0.0573312021286915, 
2, 5, distance/distance_to_2, distance/distance_to_7, 429915.13189638, 0.160652561342246, 0.305902653330086, 3.11930628078078, 0.0260176003419933, 
2, 5, distance/distance_to_3, distance/distance_to_4, 439076.437416024, 0.162355256533429, 0.308837030327874, 2.50090766914466, 0.037748095295694, 
2, 5, distance/distance_to_3, distance/distance_to_5, 2242779.7457794, 0.36693539054955, 0.591645390923192, 2.02917766695759, 0.199431864641344, 
2, 5, distance/distance_to_3, distance/distance_to_6, 587456.295746687, 0.132791131578053, 0.351607658098491, 3.08120259800472, 0.0431534451834492, 
2, 5, distance/distance_to_3, distance/distance_to_7, 240698.512120517, 0.0666793427976583, 0.23375518692643, 3.45354762104307, 0.0180223861960103, 
2, 5, distance/distance_to_4, distance/distance_to_5, 985835.457195285, 0.243275573731786, 0.437512734822177, 1.82549280818476, 0.0996329336320598, 
2, 5, distance/distance_to_4, distance/distance_to_6, 1832030.55253357, 0.331636745355171, 0.55274101298108, 2.66802360141381, 0.105379941456009, 
2, 5, distance/distance_to_4, distance/distance_to_7, 810094.693679418, 0.220528225080577, 0.403548282288519, 3.06980739927875, 0.0522892039611112, 
2, 5, distance/distance_to_5, distance/distance_to_6, 916707.31604875, 0.234591156911638, 0.424754722616533, 2.41264563518787, 0.0862143711958761, 
2, 5, distance/distance_to_5, distance/distance_to_7, 782201.605899267, 0.216698367699283, 0.397656413885777, 2.7536802360639, 0.0724174872406052, 
2, 5, distance/distance_to_6, distance/distance_to_7, 2537007.81133464, 0.275957494187568, 0.615289400727181, 3.52018538400567, 0.123745563003378, 
3, 1, distance/distance_to_1, distance/distance_to_2, 141642.042354312, 0.0922130482340958, 0.18136746290748, 2.09466116790397, 0.0162834164075835, 
3, 1, distance/distance_to_1, distance/distance_to_3, 339279.965044337, 0.142716897376173, 0.274471756039111, 1.95951240922214, 0.0383865367491377, 
3, 1, distance/distance_to_1, distance/distance_to_4, 124454.675067367, 0.0864374399980105, 0.170348130826115, 1.78276322370894, 0.0195249734514219, 
3, 1, distance/distance_to_1, distance/distance_to_5, 163152.395455155, 0.0989675947725607, 0.194168139147957, 1.43350468832173, 0.0335419336007286, 
3, 1, distance/distance_to_1, distance/distance_to_6, 311747.308513626, 0.136803637372238, 0.263907358415402, 2.14134008944038, 0.0333899739538322, 
3, 1, distance/distance_to_1, distance/distance_to_7, 808583.983188513, 0.220322502359505, 0.403233061260967, 2.4015034166581, 0.0757950763896386, 
3, 1, distance/distance_to_2, distance/distance_to_3, 762885.633193804, 0.174735190156992, 0.393484803155178, 2.84498956187593, 0.0545057537966443, 
3, 1, distance/distance_to_2, distance/distance_to_4, 5176191.41890685, 0.421388256465448, 0.744421816641529, 2.42549701070517, 0.221239835248441, 
3, 1, distance/distance_to_2, distance/distance_to_5, 952304.060644212, 0.19522636898152, 0.43141446805633, 2.30715728760024, 0.065109890469691, 
3, 1, distance/distance_to_2, distance/distance_to_6, 1266275.84219568, 0.246607024206004, 0.482879912996856, 2.985675171866, 0.076571629765822, 
3, 1, distance/distance_to_2, distance/distance_to_7, 623843.516650051, 0.146290153969285, 0.360954030128238, 3.35740789349069, 0.0382885493261181, 
3, 1, distance/distance_to_3, distance/distance_to_4, 522069.244205295, 0.144548874130966, 0.333766998342171, 2.55977726683021, 0.0408715911010551, 
3, 1, distance/distance_to_3, distance/distance_to_5, 2818883.26240465, 0.335883913210052, 0.635345866398029, 2.02519307476176, 0.216314926247081, 
3, 1, distance/distance_to_3, distance/distance_to_6, 559784.080713544, 0.16396515114809, 0.344230281721693, 2.9253842683638, 0.0435728393513587, 
3, 1, distance/distance_to_3, distance/distance_to_7, 247412.610217658, 0.0995088195619801, 0.236812569061227, 3.27490010813292, 0.0205745612236895, 
3, 1, distance/distance_to_4, distance/distance_to_5, 1359544.94948827, 0.23326385263823, 0.496105453861615, 1.96671351100738, 0.102797944157104, 
3, 1, distance/distance_to_4, distance/distance_to_6, 1700687.62869333, 0.285794296918293, 0.5384889561848, 2.63715852322476, 0.111606867803755, 
3, 1, distance/distance_to_4, distance/distance_to_7, 815282.252777096, 0.156435489270701, 0.404627384275673, 3.02031846115835, 0.0585602608799774, 
3, 1, distance/distance_to_5, distance/distance_to_6, 1003268.17290535, 0.219507720307844, 0.440619004686041, 2.34055919635073, 0.0898349518849107, 
3, 1, distance/distance_to_5, distance/distance_to_7, 812181.668078572, 0.180292329511758, 0.403983026147999, 2.66124410050645, 0.0778567727727329, 
3, 1, distance/distance_to_6, distance/distance_to_7, 2247706.73351835, 0.328557288052822, 0.592067302520042, 3.2585523308588, 0.131981217963909, 
3, 4, distance/distance_to_1, distance/distance_to_2, 47306.8442554011, 0.0615357709048293, 0.105982801823828, 1.26513817179883, 0.00974111648633416, 
3, 4, distance/distance_to_1, distance/distance_to_3, 335546.449292305, 0.141929480164729, 0.273070614262169, 1.98470833817876, 0.0375471378827069, 
3, 4, distance/distance_to_1, distance/distance_to_4, 115024.403403124, 0.0830981361799099, 0.163947481986586, 1.63043928161657, 0.0181617244652851, 
3, 4, distance/distance_to_1, distance/distance_to_5, 162555.94013592, 0.0987865254186518, 0.193826250461717, 1.3900733399372, 0.0341034195141783, 
3, 4, distance/distance_to_1, distance/distance_to_6, 298081.46879443, 0.133771555508288, 0.258453020266381, 1.52282323002291, 0.042431747146444, 
3, 4, distance/distance_to_1, distance/distance_to_7, 793701.299947722, 0.218285472989138, 0.400104052500714, 2.34729591625992, 0.0762494311493869, 
3, 4, distance/distance_to_2, distance/distance_to_3, 348067.599928897, 0.166915802946572, 0.277732728543806, 2.09063937449135, 0.0401826977463403, 
3, 4, distance/distance_to_2, distance/distance_to_4, 2572483.18479484, 0.453776424682427, 0.617942849302856, 1.59707310920079, 0.181221240917527, 
3, 4, distance/distance_to_2, distance/distance_to_5, 316513.420768517, 0.159170185156677, 0.265775604500634, 1.49118896339764, 0.0443560999123554, 
3, 4, distance/distance_to_2, distance/distance_to_6, 248477.585984072, 0.141029272699268, 0.237293057076458, 1.63692528308423, 0.0356754688676442, 
3, 4, distance/distance_to_2, distance/distance_to_7, 260084.113361321, 0.144285460277933, 0.242453215535429, 2.5293408864915, 0.0171021280207213, 
3, 4, distance/distance_to_3, distance/distance_to_4, 419408.497045206, 0.158677336067113, 0.30248765399408, 2.46173168720032, 0.0365480861009917, 
3, 4, distance/distance_to_3, distance/distance_to_5, 2353418.16407059, 0.375877075246957, 0.600896991439319, 2.04665301801259, 0.2018209400107, 
3, 4, distance/distance_to_3, distance/distance_to_6, 331258.475094727, 0.141019700344345, 0.2714495724269, 2.37498246180316, 0.0355856808899591, 
3, 4, distance/distance_to_3, distance/distance_to_7, 228137.818422181, 0.0955540944148595, 0.227899441241205, 3.27264032819475, 0.0180872780491222, 
3, 4, distance/distance_to_4, distance/distance_to_5, 915736.185191952, 0.234466864743794, 0.424570252605229, 1.80511936282559, 0.0989350539555553, 
3, 4, distance/distance_to_4, distance/distance_to_6, 712099.019043576, 0.206759980291395, 0.382136270350514, 1.94818067418633, 0.0906789012906556, 
3, 4, distance/distance_to_4, distance/distance_to_7, 694980.549046865, 0.204259664040661, 0.378179527043144, 2.85489316627811, 0.0480740874078593, 
3, 4, distance/distance_to_5, distance/distance_to_6, 554266.797631168, 0.182412972411355, 0.34272989280782, 1.72786147954216, 0.0902459255727959, 
3, 4, distance/distance_to_5, distance/distance_to_7, 783039.583007482, 0.216814411735784, 0.397835666179169, 2.59086004829472, 0.0765796744311535, 
3, 4, distance/distance_to_6, distance/distance_to_7, 1392509.96915607, 0.289131523663368, 0.500592515346458, 2.70292150384744, 0.0936190543341537, 
3, 5, distance/distance_to_1, distance/distance_to_2, 140077.391755378, 0.0748746287604294, 0.180395719900651, 2.00492569043066, 0.0168576628750622, 
3, 5, distance/distance_to_1, distance/distance_to_3, 350223.882080994, 0.118392321810495, 0.278525139404326, 2.01303659592457, 0.0380138538716906, 
3, 5, distance/distance_to_1, distance/distance_to_4, 117650.930378356, 0.0840415340712252, 0.165757887359582, 1.69094668117803, 0.0179584298375475, 
3, 5, distance/distance_to_1, distance/distance_to_5, 163709.863085783, 0.0991365294142195, 0.194487051717842, 1.5004360361927, 0.0323433989895253, 
3, 5, distance/distance_to_1, distance/distance_to_6, 312519.647913798, 0.111837981978673, 0.264211271765328, 2.11366343083363, 0.0340116598364225, 
3, 5, distance/distance_to_1, distance/distance_to_7, 774691.067667763, 0.192888153695862, 0.396043479732561, 1.87182658925238, 0.0919805407369422, 
3, 5, distance/distance_to_2, distance/distance_to_3, 707760.101648279, 0.168303712980773, 0.381139888109527, 2.71558370460901, 0.0545493530520821, 
3, 5, distance/distance_to_2, distance/distance_to_4, 3262728.75596646, 0.442574893627562, 0.662798340317036, 2.18657091205485, 0.212092444141582, 
3, 5, distance/distance_to_2, distance/distance_to_5, 917518.688597996, 0.234694951614107, 0.42490873049182, 2.18530490239221, 0.0701895404054666, 
3, 5, distance/distance_to_2, distance/distance_to_6, 1431851.48849972, 0.239386495254609, 0.505827269464293, 2.77176378315439, 0.0817695939324822, 
3, 5, distance/distance_to_2, distance/distance_to_7, 423082.453480439, 0.142545591002771, 0.303687957805817, 2.64891699109787, 0.0391101882122961, 
3, 5, distance/distance_to_3, distance/distance_to_4, 425677.064781457, 0.159858750465996, 0.3045316305653, 2.42924656784685, 0.0377861053568625, 
3, 5, distance/distance_to_3, distance/distance_to_5, 2649924.29773977, 0.398853146051028, 0.623601087977627, 2.05124038661348, 0.212316164698071, 
3, 5, distance/distance_to_3, distance/distance_to_6, 559975.58767899, 0.149704620933806, 0.344282180579229, 2.85527247243483, 0.0443262288386831, 
3, 5, distance/distance_to_3, distance/distance_to_7, 210740.13313819, 0.100603920854335, 0.219472455937699, 2.70446470907503, 0.0200278835786601, 
3, 5, distance/distance_to_4, distance/distance_to_5, 886864.037632776, 0.230741021344301, 0.41901594586736, 1.85279507993272, 0.0988064129703573, 
3, 5, distance/distance_to_4, distance/distance_to_6, 1204717.57780471, 0.26892978948034, 0.473688790443994, 2.44985399561738, 0.0966216910164981, 
3, 5, distance/distance_to_4, distance/distance_to_7, 492512.162067383, 0.171951024625957, 0.325208355059433, 2.32489033195251, 0.0512636034192205, 
3, 5, distance/distance_to_5, distance/distance_to_6, 1031319.77182402, 0.248824396998574, 0.445528836060765, 2.28015459224669, 0.0943514914208415, 
3, 5, distance/distance_to_5, distance/distance_to_7, 722796.385697492, 0.208307196715774, 0.38457426915576, 2.10624758384222, 0.0894681841948489, 
3, 5, distance/distance_to_6, distance/distance_to_7, 1676668.12263607, 0.283768925404294, 0.535770999923652, 2.64182597272472, 0.132992645008356, 
4, 1, distance/distance_to_1, distance/distance_to_2, 150478.819696826, 0.0776047576259834, 0.186747932320064, 2.24937155933601, 0.0161556766779351, 
4, 1, distance/distance_to_1, distance/distance_to_3, 368845.466458285, 0.121499050429491, 0.285246225417939, 2.25419069767773, 0.035208303605555, 
4, 1, distance/distance_to_1, distance/distance_to_4, 122583.278608695, 0.0767285335990694, 0.169099433616166, 1.75812219555219, 0.0190310981781623, 
4, 1, distance/distance_to_1, distance/distance_to_5, 164217.898041526, 0.0810701363202168, 0.194777159017379, 1.60346056223815, 0.0306405145797591, 
4, 1, distance/distance_to_1, distance/distance_to_6, 322620.505136302, 0.113630951223008, 0.268144738224755, 2.69730542999119, 0.0280456368784171, 
4, 1, distance/distance_to_1, distance/distance_to_7, 820743.53965516, 0.181240142631877, 0.405757908675299, 3.00869254702352, 0.0621021674161563, 
4, 1, distance/distance_to_2, distance/distance_to_3, 861070.873911774, 0.137103768150321, 0.413935947514648, 3.19393085917509, 0.0524773737509591, 
4, 1, distance/distance_to_2, distance/distance_to_4, 4854439.21173983, 0.482848420872738, 0.733660887913246, 2.46485645738864, 0.214144590557439, 
4, 1, distance/distance_to_2, distance/distance_to_5, 1368012.8996941, 0.19105135649013, 0.497267055471138, 2.52324670695389, 0.0693010700626361, 
4, 1, distance/distance_to_2, distance/distance_to_6, 1903588.70102493, 0.203852715301941, 0.560100415921256, 3.58360129384431, 0.0738896870599175, 
4, 1, distance/distance_to_2, distance/distance_to_7, 727937.863427208, 0.126059940049087, 0.385736792146993, 4.01805257432653, 0.0354310385609044, 
4, 1, distance/distance_to_3, distance/distance_to_4, 510104.662003817, 0.156520392463507, 0.330342215782836, 2.73427492658492, 0.0380591748415093, 
4, 1, distance/distance_to_3, distance/distance_to_5, 4796085.58008363, 0.357724340144814, 0.731608685289897, 2.35419792444741, 0.216997722055515, 
4, 1, distance/distance_to_3, distance/distance_to_6, 662862.470278047, 0.120293360352906, 0.370564164230373, 3.67346025687168, 0.0397606749215877, 
4, 1, distance/distance_to_3, distance/distance_to_7, 294862.071150228, 0.0711167206347105, 0.257146309004168, 4.07695000792707, 0.0196548391598712, 
4, 1, distance/distance_to_4, distance/distance_to_5, 1317247.82101613, 0.251521448970782, 0.490207646001836, 2.01384980141979, 0.101162486452988, 
4, 1, distance/distance_to_4, distance/distance_to_6, 1997669.52833224, 0.309744144005625, 0.569377389487868, 3.06920058816064, 0.0986235658896377, 
4, 1, distance/distance_to_4, distance/distance_to_7, 867723.936053131, 0.204141861496521, 0.415257223363922, 3.50914607230138, 0.0493045575580548, 
4, 1, distance/distance_to_5, distance/distance_to_6, 1250876.19770471, 0.182688913780639, 0.480616617979645, 2.95313888365006, 0.0834939400160174, 
4, 1, distance/distance_to_5, distance/distance_to_7, 869460.689719826, 0.152310556516527, 0.415600871951555, 3.33643337913291, 0.0665288769024645, 
4, 1, distance/distance_to_6, distance/distance_to_7, 3361873.88852008, 0.27090726416363, 0.668347125573634, 4.26375117580901, 0.129316629400706, 
4, 5, distance/distance_to_1, distance/distance_to_2, 150308.537383154, 0.0949922364806334, 0.186645923105711, 2.24940307986808, 0.0161095038675544, 
4, 5, distance/distance_to_1, distance/distance_to_3, 365339.107492891, 0.148096355150511, 0.283997023351582, 2.23792730926728, 0.0352624886907378, 
4, 5, distance/distance_to_1, distance/distance_to_4, 124951.079236054, 0.0866096521091855, 0.170677643742935, 1.79262141868272, 0.0194218678814313, 
4, 5, distance/distance_to_1, distance/distance_to_5, 164125.464474342, 0.0992622859287584, 0.194724413162582, 1.5605320214428, 0.0313687231377496, 
4, 5, distance/distance_to_1, distance/distance_to_6, 322052.149840844, 0.139046284889411, 0.267925410306342, 2.6952349753055, 0.0280827247992515, 
4, 5, distance/distance_to_1, distance/distance_to_7, 820131.206647134, 0.221890115936277, 0.405631431492922, 2.96824789354791, 0.062895620835678, 
4, 5, distance/distance_to_2, distance/distance_to_3, 845145.44428533, 0.142459695389944, 0.410741559495464, 3.17908876058166, 0.0524343639682685, 
4, 5, distance/distance_to_2, distance/distance_to_4, 4757867.74383131, 0.478021537772158, 0.730246905387879, 2.48757009077219, 0.221122760114784, 
4, 5, distance/distance_to_2, distance/distance_to_5, 1221591.0998075, 0.22111264959661, 0.476246776851364, 2.48377112491453, 0.0685955806095055, 
4, 5, distance/distance_to_2, distance/distance_to_6, 1893709.73070883, 0.213247029094434, 0.559100471079575, 3.58256817691572, 0.0739943385947466, 
4, 5, distance/distance_to_2, distance/distance_to_7, 703179.598414061, 0.129944952579296, 0.380083258957541, 3.97920489305051, 0.0355475197831413, 
4, 5, distance/distance_to_3, distance/distance_to_4, 539474.333188741, 0.160963228876058, 0.338656763770567, 2.75211048589952, 0.0392564254437776, 
4, 5, distance/distance_to_3, distance/distance_to_5, 3936499.25129372, 0.396922524976672, 0.697091452741005, 2.30636717731716, 0.213786184919959, 
4, 5, distance/distance_to_3, distance/distance_to_6, 666200.234366423, 0.120595841414138, 0.371367589955359, 3.65581199329896, 0.0401098954582531, 
4, 5, distance/distance_to_3, distance/distance_to_7, 294017.528297278, 0.0736955422970312, 0.256802105562316, 4.02118553876502, 0.0199175603633152, 
4, 5, distance/distance_to_4, distance/distance_to_5, 1413894.25882781, 0.260585200679418, 0.503453801027965, 2.0043212273107, 0.104227013706218, 
4, 5, distance/distance_to_4, distance/distance_to_6, 2293655.04676697, 0.331898533379557, 0.595956820109224, 3.0945418665591, 0.103100524786659, 
4, 5, distance/distance_to_4, distance/distance_to_7, 838194.407479726, 0.200638217701367, 0.409333054582167, 3.50138295656553, 0.0513997640490952, 
4, 5, distance/distance_to_5, distance/distance_to_6, 1237352.27426322, 0.222534494428242, 0.478609459836887, 2.91086342703592, 0.0836563107645123, 
4, 5, distance/distance_to_5, distance/distance_to_7, 853506.80313082, 0.184822207190673, 0.412424327840887, 3.2551935920035, 0.0675262498929445, 
4, 5, distance/distance_to_6, distance/distance_to_7, 3189597.67124005, 0.263874786066279, 0.658578617555999, 4.22290407398849, 0.130283699249961, 
5, 1, distance/distance_to_1, distance/distance_to_2, 151131.161043422, 0.0851958207683107, 0.187138134649765, 2.26621338870169, 0.0161513883747853, 
5, 1, distance/distance_to_1, distance/distance_to_3, 371304.279312268, 0.133538427892131, 0.286117821411167, 2.26025806334703, 0.0352634729332341, 
5, 1, distance/distance_to_1, distance/distance_to_4, 134064.247112724, 0.0802412653575704, 0.176604697933834, 2.10917903554134, 0.0181211418426397, 
5, 1, distance/distance_to_1, distance/distance_to_5, 162824.676699304, 0.0988681483612585, 0.193980376736553, 1.43249100329367, 0.0331077182081767, 
5, 1, distance/distance_to_1, distance/distance_to_6, 323710.263096697, 0.124686523520457, 0.268564619041617, 2.7988843998777, 0.0272963913354687, 
5, 1, distance/distance_to_1, distance/distance_to_7, 821867.923518727, 0.198674577098415, 0.40598996636281, 3.21338505290192, 0.058424857908833, 
5, 1, distance/distance_to_2, distance/distance_to_3, 859313.482729886, 0.136963786631714, 0.413585645031969, 3.21217321154468, 0.0522811324136913, 
5, 1, distance/distance_to_2, distance/distance_to_4, 7635016.26760962, 0.428184820730706, 0.804406563167827, 2.75866318833737, 0.235039351585235, 
5, 1, distance/distance_to_2, distance/distance_to_5, 794209.758142705, 0.218355380439165, 0.400211667899105, 2.38297201024031, 0.0580243661759157, 
5, 1, distance/distance_to_2, distance/distance_to_6, 2076087.15657518, 0.2128887599691, 0.576786669100534, 3.69453653536059, 0.0733449748818623, 
5, 1, distance/distance_to_2, distance/distance_to_7, 759186.798303445, 0.128737261075342, 0.392677160073438, 4.2337157639488, 0.0343269737496493, 
5, 1, distance/distance_to_3, distance/distance_to_4, 715522.95256784, 0.131080493817807, 0.382919460333122, 3.07499163735801, 0.0427751805317551, 
5, 1, distance/distance_to_3, distance/distance_to_5, 2338455.08982255, 0.374680253318601, 0.599672428608, 2.23920180009836, 0.187126939411056, 
5, 1, distance/distance_to_3, distance/distance_to_6, 692055.330395574, 0.101914669797439, 0.377496436252192, 3.77473719006684, 0.0397819533026037, 
5, 1, distance/distance_to_3, distance/distance_to_7, 304314.55023714, 0.0620170126425094, 0.260959063053431, 4.2825240880018, 0.019097940208351, 
5, 1, distance/distance_to_4, distance/distance_to_5, 1203928.60319606, 0.26884171343252, 0.473568450921445, 2.19278333087769, 0.0915503152675132, 
5, 1, distance/distance_to_4, distance/distance_to_6, 3042332.04859648, 0.270289758486961, 0.649733957232903, 3.48617556305291, 0.104815467285051, 
5, 1, distance/distance_to_4, distance/distance_to_7, 1052616.3928901, 0.158986902658244, 0.449185741321615, 4.04309669646933, 0.0522004843355749, 
5, 1, distance/distance_to_5, distance/distance_to_6, 998820.74435748, 0.244872528185658, 0.439830608228588, 2.8950021817754, 0.0745695072487676, 
5, 1, distance/distance_to_5, distance/distance_to_7, 799367.076207079, 0.219063194639678, 0.401300343255457, 3.3722026264662, 0.0617240624208058, 
5, 1, distance/distance_to_6, distance/distance_to_7, 3761950.16885405, 0.237614430401573, 0.688923829409884, 4.55150334816877, 0.127184226920377, 
5, 4, distance/distance_to_1, distance/distance_to_2, 151220.282173545, 0.0720248373249728, 0.187191370750135, 2.28127680882692, 0.0160155939535441, 
5, 4, distance/distance_to_1, distance/distance_to_3, 375136.004869094, 0.113441415907157, 0.28746894692484, 2.26596596169995, 0.0353739765372499, 
5, 4, distance/distance_to_1, distance/distance_to_4, 134605.825055572, 0.0679530870560277, 0.176949905455887, 2.08750212911531, 0.0183003765107321, 
5, 4, distance/distance_to_1, distance/distance_to_5, 163064.469228398, 0.0989409233287458, 0.194117783520526, 1.45877061783127, 0.0327969597648956, 
5, 4, distance/distance_to_1, distance/distance_to_6, 324102.333569769, 0.105443143076797, 0.268715472453117, 2.80691670252881, 0.0272395107413512, 
5, 4, distance/distance_to_1, distance/distance_to_7, 822788.70190096, 0.16800469702989, 0.406179826007268, 3.24855414817252, 0.0580130473351634, 
5, 4, distance/distance_to_2, distance/distance_to_3, 863720.927720668, 0.126311045280962, 0.414463163196822, 3.22183577073092, 0.0521792391610047, 
5, 4, distance/distance_to_2, distance/distance_to_4, 7063795.11623359, 0.460468936307744, 0.793167662921613, 2.74507370593193, 0.233633013419385, 
5, 4, distance/distance_to_2, distance/distance_to_5, 951543.562002813, 0.239007002905056, 0.431274224190665, 2.40883045466049, 0.060889373822182, 
5, 4, distance/distance_to_2, distance/distance_to_6, 2139465.67481764, 0.198795829614237, 0.582573653125651, 3.70558325279292, 0.0735467626471787, 
5, 4, distance/distance_to_2, distance/distance_to_7, 838921.185016839, 0.124484474031022, 0.409480733478478, 4.27020406057778, 0.0353222760353782, 
5, 4, distance/distance_to_3, distance/distance_to_4, 707486.846457233, 0.145727151348373, 0.381076991518939, 3.0484198223511, 0.0428934109692877, 
5, 4, distance/distance_to_3, distance/distance_to_5, 2637094.97843492, 0.39788647263035, 0.622676144212029, 2.25209392715087, 0.192209296059261, 
5, 4, distance/distance_to_3, distance/distance_to_6, 694521.685281284, 0.0870678556958337, 0.378072510132628, 3.77750261635353, 0.039761640557189, 
5, 4, distance/distance_to_3, distance/distance_to_7, 319902.4486877, 0.0523788610311085, 0.267093708627293, 4.31114098770712, 0.0197099474428095, 
5, 4, distance/distance_to_4, distance/distance_to_5, 1299175.54604594, 0.279273808137846, 0.487637785303678, 2.1822435353455, 0.0954050974781898, 
5, 4, distance/distance_to_4, distance/distance_to_6, 2794714.55243724, 0.289634317814754, 0.633713900186005, 3.46456618957689, 0.103758195354918, 
5, 4, distance/distance_to_4, distance/distance_to_7, 1086052.34486653, 0.180553815025594, 0.454808951131276, 4.04603722811569, 0.0520101135283541, 
5, 4, distance/distance_to_5, distance/distance_to_6, 1127004.72164956, 0.26011126195945, 0.461508120762167, 2.91399870473549, 0.0768548609345848, 
5, 4, distance/distance_to_5, distance/distance_to_7, 847432.095887009, 0.225553069989736, 0.411203002845929, 3.42006110880201, 0.062494365284527, 
5, 4, distance/distance_to_6, distance/distance_to_7, 4895508.67726077, 0.231160622830579, 0.735086002124247, 4.5788387937383, 0.128396607254031, 
5, 6, distance/distance_to_1, distance/distance_to_2, 151087.242867209, 0.0719931476511113, 0.187111893947491, 2.27599725884625, 0.0159972100625497, 
5, 6, distance/distance_to_1, distance/distance_to_3, 375114.704213026, 0.113438195194062, 0.28746145982842, 2.26577272356876, 0.0353624582297022, 
5, 6, distance/distance_to_1, distance/distance_to_4, 134615.671639629, 0.0679555724371297, 0.176956174735457, 2.09601706543144, 0.0182582520603721, 
5, 6, distance/distance_to_1, distance/distance_to_5, 163388.957005199, 0.0990393174316714, 0.194303543756802, 1.48008886927031, 0.0326220516630505, 
5, 6, distance/distance_to_1, distance/distance_to_6, 324102.333569768, 0.105443143076797, 0.268715472453117, 2.7980530795765, 0.0273246206757783, 
5, 6, distance/distance_to_1, distance/distance_to_7, 822675.415485297, 0.167993130691488, 0.406156475515576, 3.21625530968839, 0.0585606851378728, 
5, 6, distance/distance_to_2, distance/distance_to_3, 862540.373774581, 0.131378826188474, 0.414228449101614, 3.21632158561668, 0.0522430733978715, 
5, 6, distance/distance_to_2, distance/distance_to_4, 7197782.94941902, 0.438232318427607, 0.795919970149195, 2.74737145945926, 0.233975631489322, 
5, 6, distance/distance_to_2, distance/distance_to_5, 974316.439105546, 0.241850117909922, 0.435436385947516, 2.42165150933725, 0.0631946058020328, 
5, 6, distance/distance_to_2, distance/distance_to_6, 2032356.60572151, 0.20166736215868, 0.572689762328885, 3.69229676560166, 0.0733390198323108, 
5, 6, distance/distance_to_2, distance/distance_to_7, 818138.071304842, 0.12795255495581, 0.405219261139167, 4.23306605443637, 0.0353828689479379, 
5, 6, distance/distance_to_3, distance/distance_to_4, 709147.757015167, 0.137554054513711, 0.381459023266109, 3.0566733851441, 0.0428332045015962, 
5, 6, distance/distance_to_3, distance/distance_to_5, 2899781.00172378, 0.417233228550376, 0.640697702114429, 2.26445769342891, 0.197713755290996, 
5, 6, distance/distance_to_3, distance/distance_to_6, 686464.534723412, 0.104830994765033, 0.376185132807319, 3.76880732213913, 0.0396585608834516, 
5, 6, distance/distance_to_3, distance/distance_to_7, 316896.480095767, 0.0563092017593735, 0.26592501646649, 4.2789423541987, 0.0197005547504746, 
5, 6, distance/distance_to_4, distance/distance_to_5, 1399880.12369721, 0.289895658886102, 0.501582994620604, 2.20769416938711, 0.0981639680159581, 
5, 6, distance/distance_to_4, distance/distance_to_6, 2834746.40798437, 0.275018643809466, 0.636408625145872, 3.46342815161674, 0.104217638332044, 
5, 6, distance/distance_to_4, distance/distance_to_7, 1078010.89695766, 0.169596390404425, 0.453469450674577, 4.02192838372052, 0.0524684371958241, 
5, 6, distance/distance_to_5, distance/distance_to_6, 1151486.42943518, 0.262921257268277, 0.465418375329218, 2.92352203032116, 0.0786068887768656, 
5, 6, distance/distance_to_5, distance/distance_to_7, 855703.40377199, 0.226651145377095, 0.412864341044632, 3.40817382415144, 0.0633097719499323, 
5, 6, distance/distance_to_6, distance/distance_to_7, 3896546.50612991, 0.249758677728635, 0.695261539102142, 4.54220855438672, 0.127605872839663, 
6, 5, distance/distance_to_1, distance/distance_to_2, 146329.436792557, 0.0838314797876815, 0.184243801515273, 2.22479454210196, 0.0159897046817599, 
6, 5, distance/distance_to_1, distance/distance_to_3, 348626.976902582, 0.129396275768553, 0.27793858346505, 2.02491582704532, 0.0378170462522655, 
6, 5, distance/distance_to_1, distance/distance_to_4, 118218.863078954, 0.0842441354129829, 0.16614646681867, 1.67092544100593, 0.0183261130622232, 
6, 5, distance/distance_to_1, distance/distance_to_5, 164099.899457868, 0.0887759726693111, 0.194709821941938, 1.50428917294368, 0.0323747756560562, 
6, 5, distance/distance_to_1, distance/distance_to_6, 300978.58772482, 0.134420061066249, 0.259621701263302, 1.56519128641477, 0.0417441962976876, 
6, 5, distance/distance_to_1, distance/distance_to_7, 819002.672018534, 0.198327958364276, 0.405398148169898, 2.94614274348082, 0.0633893705671358, 
6, 5, distance/distance_to_2, distance/distance_to_3, 760816.828369032, 0.128875391169834, 0.393033432287075, 2.99542543958014, 0.0518744654752624, 
6, 5, distance/distance_to_2, distance/distance_to_4, 3673236.405097, 0.46959204181404, 0.684594197297081, 2.42937778133572, 0.198875368477094, 
6, 5, distance/distance_to_2, distance/distance_to_5, 1128377.28522903, 0.232792213250401, 0.461729185684299, 2.45554033572294, 0.0667211356007142, 
6, 5, distance/distance_to_2, distance/distance_to_6, 701431.903542198, 0.205205523255665, 0.379678800571269, 2.54124888885718, 0.0525350172338629, 
6, 5, distance/distance_to_2, distance/distance_to_7, 796568.936500985, 0.131868669579978, 0.400710322645551, 3.97879344566273, 0.0370160154339041, 
6, 5, distance/distance_to_3, distance/distance_to_4, 430198.685219359, 0.160705532330497, 0.305994074074299, 2.47193222037967, 0.0372457817398352, 
6, 5, distance/distance_to_3, distance/distance_to_5, 2649424.04757345, 0.356711424455811, 0.623565112816567, 2.11668319473988, 0.207342236450255, 
6, 5, distance/distance_to_3, distance/distance_to_6, 332114.000954281, 0.141201685430223, 0.2717740180824, 2.3879066088269, 0.0354685818838119, 
6, 5, distance/distance_to_3, distance/distance_to_7, 278135.716004499, 0.0779216826174307, 0.250216106970173, 3.83695764622334, 0.0196545575715554, 
6, 5, distance/distance_to_4, distance/distance_to_5, 1033693.48607033, 0.249110582993183, 0.44593940700221, 1.88521050733403, 0.0995274915728328, 
6, 5, distance/distance_to_4, distance/distance_to_6, 887942.738646664, 0.230881304930105, 0.419225933898766, 1.95868047752382, 0.0923072868235649, 
6, 5, distance/distance_to_4, distance/distance_to_7, 742412.4579223, 0.211114913560637, 0.388977983021959, 3.42018134484945, 0.0441994817476523, 
6, 5, distance/distance_to_5, distance/distance_to_6, 557964.576963118, 0.183020443076155, 0.343736590547133, 1.81285713423508, 0.0878218754579552, 
6, 5, distance/distance_to_5, distance/distance_to_7, 861870.778672631, 0.203452185783399, 0.414095214106365, 3.22648776144406, 0.0680507337656719, 
6, 5, distance/distance_to_6, distance/distance_to_7, 1881896.04391193, 0.336119805059102, 0.557898038771833, 3.25754224210337, 0.0892237830600134, 
7, 4, distance/distance_to_1, distance/distance_to_2, 135222.392854765, 0.10403751375407, 0.177341988808456, 1.91352759453443, 0.016576109852995, 
7, 4, distance/distance_to_1, distance/distance_to_3, 335674.189705902, 0.163917239381154, 0.273118710907679, 1.93940607537245, 0.0381716894691833, 
7, 4, distance/distance_to_1, distance/distance_to_4, 125687.926519937, 0.100302656988154, 0.171165452998811, 1.85618944276803, 0.0181562261502592, 
7, 4, distance/distance_to_1, distance/distance_to_5, 162935.237942937, 0.114201857090499, 0.194043744921985, 1.41713375832856, 0.0336537138568391, 
7, 4, distance/distance_to_1, distance/distance_to_6, 319295.989749013, 0.159868311718749, 0.266858461287417, 2.2274087257246, 0.0334777096723984, 
7, 4, distance/distance_to_1, distance/distance_to_7, 796385.660624789, 0.252480227295551, 0.400671623211316, 1.91018568549308, 0.0899638578590923, 
7, 4, distance/distance_to_2, distance/distance_to_3, 669898.228152897, 0.179368301796779, 0.372254409937542, 2.61902609121385, 0.0540372747768117, 
7, 4, distance/distance_to_2, distance/distance_to_4, 3422568.57125186, 0.405431381124535, 0.671650450378883, 2.2990837418875, 0.223141006105278, 
7, 4, distance/distance_to_2, distance/distance_to_5, 702533.521839465, 0.205366600524857, 0.379933825391183, 2.08553537299073, 0.0653659829291802, 
7, 4, distance/distance_to_2, distance/distance_to_6, 1261070.19091636, 0.246099602276591, 0.482117460499462, 2.86778514543993, 0.0752731218430663, 
7, 4, distance/distance_to_2, distance/distance_to_7, 440343.520997851, 0.145424335228561, 0.30923977326796, 2.6665726144445, 0.035506588387852, 
7, 4, distance/distance_to_3, distance/distance_to_4, 504770.159398981, 0.155699822763341, 0.32879803851801, 2.58273240080638, 0.0399905818382367, 
7, 4, distance/distance_to_3, distance/distance_to_5, 2164603.41116584, 0.360483555244291, 0.58482125881741, 1.98322316562425, 0.200033111656146, 
7, 4, distance/distance_to_3, distance/distance_to_6, 600052.23958507, 0.143473533553642, 0.354887113142027, 2.95967441690873, 0.0448462182586894, 
7, 4, distance/distance_to_3, distance/distance_to_7, 130829.451201714, 0.0792672956446008, 0.174526750269171, 2.74540509783955, 0.0122977077142535, 
7, 4, distance/distance_to_4, distance/distance_to_5, 1094152.18322759, 0.256292061269268, 0.456150078313369, 1.99618329583587, 0.0985786527615073, 
7, 4, distance/distance_to_4, distance/distance_to_6, 2085238.92906027, 0.316460269723025, 0.577633159671082, 2.76772759445197, 0.106640036454618, 
7, 4, distance/distance_to_4, distance/distance_to_7, 659597.865002663, 0.177983975252871, 0.369775580768595, 2.58265420775202, 0.0570179094605477, 
7, 4, distance/distance_to_5, distance/distance_to_6, 1085386.05219964, 0.25526331593063, 0.454698269403553, 2.37933757481456, 0.0902721885326223, 
7, 4, distance/distance_to_5, distance/distance_to_7, 656844.88380642, 0.198576430186399, 0.369108441124275, 2.13267665061211, 0.0843965855737705, 
7, 4, distance/distance_to_6, distance/distance_to_7, 2279819.05831839, 0.330895965331741, 0.594794110883861, 2.8323730800479, 0.143057389282729, 
7, 5, distance/distance_to_1, distance/distance_to_2, 130529.089206179, 0.0885217400517422, 0.174332389034881, 1.98073851894826, 0.0163100157320405, 
7, 5, distance/distance_to_1, distance/distance_to_3, 255483.447568771, 0.123844770407202, 0.240424285280505, 1.62145763633427, 0.0374162409885565, 
7, 5, distance/distance_to_1, distance/distance_to_4, 133062.384292248, 0.0893766225119886, 0.1759640843637, 2.02826054848988, 0.0184982981263715, 
7, 5, distance/distance_to_1, distance/distance_to_5, 163331.289631768, 0.0990218381557039, 0.194270545800973, 1.44478490981584, 0.0333561815123517, 
7, 5, distance/distance_to_1, distance/distance_to_6, 320770.773390681, 0.138769391513343, 0.267430063698851, 2.38128929057539, 0.0315121014157901, 
7, 5, distance/distance_to_1, distance/distance_to_7, 796255.574811149, 0.218636431992167, 0.400644151067925, 1.7984502012581, 0.0947842353930991, 
7, 5, distance/distance_to_2, distance/distance_to_3, 400924.460694699, 0.109701500360682, 0.296345089758532, 2.37517135812858, 0.0384773183415381, 
7, 5, distance/distance_to_2, distance/distance_to_4, 5192415.26940913, 0.422048123047155, 0.744940859154403, 2.49945993930146, 0.225185858079509, 
7, 5, distance/distance_to_2, distance/distance_to_5, 918684.71159648, 0.234844034583817, 0.4251298713771, 2.16433473781126, 0.0664208303746848, 
7, 5, distance/distance_to_2, distance/distance_to_6, 1928616.56245699, 0.205188438963873, 0.562611334559512, 3.06389187543977, 0.0783430267167957, 
7, 5, distance/distance_to_2, distance/distance_to_7, 307334.542023416, 0.121491800692251, 0.262162162564394, 2.61555736204256, 0.0314286745393638, 
7, 5, distance/distance_to_3, distance/distance_to_4, 267653.589599627, 0.0958216842442892, 0.245745959729361, 2.44021882830918, 0.0256601482428993, 
7, 5, distance/distance_to_3, distance/distance_to_5, 1386213.68969989, 0.288477124273889, 0.499742710880377, 1.7276964384886, 0.175638316120797, 
7, 5, distance/distance_to_3, distance/distance_to_6, 358221.929049415, 0.103694894633978, 0.281438331035708, 2.8021209324604, 0.0295534946316, 
7, 5, distance/distance_to_3, distance/distance_to_7, 146381.212805555, 0.0838463095991056, 0.184275287622684, 2.29454776233529, 0.0156647760925386, 
7, 5, distance/distance_to_4, distance/distance_to_5, 1370781.52776203, 0.286866880023961, 0.497645487794229, 2.17529591719793, 0.0992265257069558, 
7, 5, distance/distance_to_4, distance/distance_to_6, 2452492.85962601, 0.290055523299075, 0.60880526517681, 3.06061243242566, 0.110134127470151, 
7, 5, distance/distance_to_4, distance/distance_to_7, 566003.389640711, 0.164873477398037, 0.345909612544741, 2.63061577240807, 0.0567837640651777, 
7, 5, distance/distance_to_5, distance/distance_to_6, 1136457.43328808, 0.261199821098322, 0.463026120194178, 2.543208220983, 0.0885805730255801, 
7, 5, distance/distance_to_5, distance/distance_to_7, 627486.183459583, 0.19408786025957, 0.361868693029023, 2.03673901861177, 0.0871926342051668, 
7, 5, distance/distance_to_6, distance/distance_to_7, 1754771.27859745, 0.29030301115621, 0.544479541602758, 2.88387658349368, 0.127170859834275, 
